{
"ACTOR.TypeCharacter": "Personaggio Giocante",
"ACTOR.TypeNpc": "Personaggio Non-Giocante",
"ACTOR.TypeVehicle": "Veicolo",
"ITEM.TypeBackpack": "Zaino",
"ITEM.TypeClass": "Classe",
"ITEM.TypeConsumable": "Consumabile",
"ITEM.TypeEquipment": "Equipaggiamento",
"ITEM.TypeFeat": "Caratteristica",
"ITEM.TypeLoot": "Altro",
"ITEM.TypeSpell": "Incantesimo",
"ITEM.TypeTool": "Strumento",
"ITEM.TypeWeapon": "Arma",

"DND5E.title": "Dungeons & Dragons 5a Edizione",
"DND5E.AbbreviationCR": "Sfida",
"DND5E.AbbreviationConc": "Conc.",
"DND5E.AbbreviationDC": "CD",
"DND5E.AbbreviationLR": "RL",
"DND5E.AbbreviationLevel": "Liv.",
"DND5E.AbbreviationLbs": "Kg",
"DND5E.AbbreviationSR": "RB",
"DND5E.Ability": "Caratteristica",
"DND5E.AbilityStr": "Forza",
"DND5E.AbilityStrAbbr": "for",
"DND5E.AbilityCon": "Costituzione",
"DND5E.AbilityConAbbr": "cos",
"DND5E.AbilityDex": "Destrezza",
"DND5E.AbilityDexAbbr": "des",
"DND5E.AbilityInt": "Intelligenza",
"DND5E.AbilityIntAbbr": "int",
"DND5E.AbilityWis": "Saggezza",
"DND5E.AbilityWisAbbr": "sag",
"DND5E.AbilityCha": "Carisma",
"DND5E.AbilityChaAbbr": "car",
"DND5E.AbilityModifier": "Modificatore Caratteristica",
"DND5E.AbilityPromptText": "Quale tipo di prova di {ability} vuoi fare?",
"DND5E.AbilityPromptTitle": "Prova di {ability}",
"DND5E.AbilityUseHint": "Configura come desideri utilizzare: {name} {type}.",
"DND5E.AbilityUseUnavailableHint": "Non ci sono utilizzi rimanenti di questo oggetto!",
"DND5E.AbilityUseChargedHint": "Questo {type} è carico e pronto per l'uso!",
"DND5E.AbilityUseRechargeHint": "Questo {type} è esaurito e deve essere ricaricato!",
"DND5E.AbilityUseNormalHint": "Questo {type} ha {value} di {max} utilizzi per {per} rimanenti.",
"DND5E.AbilityUseConsumableChargeHint": "Usare questo {type} consumerà 1 carica delle {value} restanti.",
"DND5E.AbilityUseConsumableQuantityHint": "Usare questo {type} consumerà 1 quantità delle {quantity} restanti",
"DND5E.AbilityUseConsumableDestroyHint": "Usare questo {type} consumerà la sua ultima carica e sarà distrutto.",
"DND5E.AbilityUseConsume": "Consuma gli utilizzi disponibili?",
"DND5E.AbilityUseChargesLabel": "{value} Cariche",
"DND5E.AbilityUseConsumableLabel": "{max} per {per}",
"DND5E.AbilityUseCast": "Lancia Incantesimo",
"DND5E.AbilityUseUse": "Usa Abilità",
"DND5E.AbilityUseConfig": "Configurazione d'uso",
"DND5E.Action": "Azione",
"DND5E.ActionPl": "Azioni",
"DND5E.ActionAbil": "Test di Caratteristica",
"DND5E.ActionHeal": "Cura",
"DND5E.ActionMSAK": "Attacco con Incantesimo in Mischia",
"DND5E.ActionMWAK": "Attacco con Arma da Mischia",
"DND5E.ActionOther": "Altro",
"DND5E.ActionRSAK": "Attacco con Incantesimo a Distanza",
"DND5E.ActionRWAK": "Attacco con Arma a Distanza",
"DND5E.ActionSave": "Tiro Salvezza",
"DND5E.ActionUtil": "Utilità",
"DND5E.ActionWarningNoItem": "L'oggetto richiesto {item} non esiste più sul personaggio {name}",
"DND5E.ActionWarningNoToken": "È necessario disporre di uno o più token controllati per utilizzare questa opzione.",
"DND5E.ActorWarningInvalidItem": "Non è possibile aggiungere elementi di tipo {itemType} ad un {actorType}.",
"DND5E.Add": "Agg.",
"DND5E.AddEmbeddedItemPromptHint": "Vuoi aggiungere questi elementi alla tua scheda del personaggio?",
"DND5E.SelectItemsPromptTitle": "Seleziona Elementi",
"DND5E.Advantage": "Vantaggio",
"DND5E.Alignment": "Allineamento",
"DND5E.AlignmentCE": "Caotico Malvagio",
"DND5E.AlignmentCG": "Caotico Buono",
"DND5E.AlignmentCN": "Caotico Neutrale",
"DND5E.AlignmentLE": "Legale Malvagio",
"DND5E.AlignmentLG": "Legale Buono",
"DND5E.AlignmentLN": "Legale Neutrale",
"DND5E.AlignmentNE": "Neutrale Malvagio",
"DND5E.AlignmentNG": "Neutrale Buono",
"DND5E.AlignmentTN": "Vero Neutrale",
"DND5E.Appearance": "Aspetto",
"DND5E.Apply": "Applica",
"DND5E.Attunement": "Sintonia",
"DND5E.AttunementNone": "Sintonia non Richiesta",
"DND5E.AttunementRequired": "Sintonia Richiesta",
"DND5E.AttunementAttuned": "In Sintonia",
"DND5E.Attuned": "In Sintonia",
"DND5E.ArmorClass": "Classe Armatura",
"DND5E.AC": "CA",
"DND5E.Attack": "Attacco",
"DND5E.AttackPl": "Attacchi",
"DND5E.AttackRoll": "Tiro per Colpire",
"DND5E.Attributes": "Attributi",
"DND5E.Background": "Background",
"DND5E.Biography": "Biografia",
"DND5E.Bonds": "Legami",
"DND5E.BonusAbilityCheck": "Bonus Generale Prove di Caratteristica",
"DND5E.BonusAbilitySave": "Bonus Generale Tiri Salvezza",
"DND5E.BonusAbilitySkill": "Bonus Generale Prove di Abilità",
"DND5E.BonusAction": "Azione Bonus",
"DND5E.BonusMSAttack": "Bonus Attacco con Incantesimo in Mischia",
"DND5E.BonusMSDamage": "Bonus Danno con Incantesimo in Mischia",
"DND5E.BonusMWAttack": "Bonus Attacco con Arma da Mischia",
"DND5E.BonusMWDamage": "Bonus Danno con Arma da Mischia",
"DND5E.BonusRSAttack": "Bonus Attacco con Incantesimo a Distanza",
"DND5E.BonusRSDamage": "Bonus Danno con Incantesimo a Distanza",
"DND5E.BonusRWAttack": "Bonus Attacco con Arma a Distanza",
"DND5E.BonusRWDamage": "Bonus Danno con Arma a Distanza",
"DND5E.BonusSaveForm": "Aggiorna Bonus",
"DND5E.BonusSpellDC": "Bonus Generale CD Incantesimo",
"DND5E.BonusTitle": "Configura Bonus Personaggio",
"DND5E.Bonuses": "Bonus Personaggio",
"DND5E.BonusesHint": "Definisci i bonus globali come formule che vengono aggiunte a determinati tiri. Ad esempio: 1d4 2",
"DND5E.BonusesInstructions": "Configura i bonus che vengono aggiunti al tiro di dado appropriato",
"DND5E.ChallengeRating": "Grado di Sfida",
"DND5E.Charged": "Caricato",
"DND5E.Charges": "Cariche",
"DND5E.ChatContextDamage": "applica Danno",
"DND5E.ChatContextHealing": "Applica Guarigione",
"DND5E.ChatContextDoubleDamage": "Applica Doppio Danno",
"DND5E.ChatContextHalfDamage": "Applica Metà Danno",
"DND5E.ChatFlavor": "Messaggio Visualizzato in Chat",
"DND5E.ClassLevels": "Livelli di Classe",
"DND5E.ClassMakeOriginal": "Classe Originale",
"DND5E.ClassMakeOriginalHint": "Prima classe adottata dal personaggio utilizzata per determinare alcuni tratti di classe per il multiclasse.",
"DND5E.ClassName": "Nome Classe",
"DND5E.ClassOriginal": "Classe Originale",
"DND5E.ClassSaves": "Tiri Salvezza",
"DND5E.ClassSkillsNumber": "Numero di Abilità Iniziali",
"DND5E.ClassSkillsChosen": "Abilità di Classe Scelte",
"DND5E.ComponentMaterial": "Materiale",
"DND5E.ComponentSomatic": "Somatico",
"DND5E.ComponentVerbal": "Verbale",
"DND5E.ConBlinded": "Accecato",
"DND5E.ConCharmed": "Affascinato",
"DND5E.ConDeafened": "Assordato",
"DND5E.ConDiseased": "Malato",
"DND5E.ConExhaustion": "Indebolimento",
"DND5E.ConFrightened": "Spaventato",
"DND5E.ConGrappled": "Afferrato",
"DND5E.ConImm": "Immunità alle Condizioni",
"DND5E.ConIncapacitated": "Incapacitato",
"DND5E.ConInvisible": "Invisibile",
"DND5E.ConParalyzed": "Paralizzato",
"DND5E.ConPetrified": "Pietrificato",
"DND5E.ConPoisoned": "Avvelenato",
"DND5E.ConProne": "Prono",
"DND5E.ConRestrained": "Trattenuto",
"DND5E.ConStunned": "Stordito",
"DND5E.ConUnconscious": "Privo di Sensi",
"DND5E.Concentration": "Concentrazione",
"DND5E.ConsumeTitle": "Consumo di Risorse",
"DND5E.ConsumeAmmunition": "Munizione",
"DND5E.ConsumeAttribute": "Attributo",
"DND5E.ConsumeMaterial": "Materiale",
"DND5E.ConsumeCharges": "Utilizzo Oggetto",
"DND5E.ConsumeWarningNoResource": "{name} è configurato per consumare {type} ma non è stata specificata alcuna risorsa!",
"DND5E.ConsumeWarningNoSource": "La fonte {type} designata da {name} non esiste più!",
"DND5E.ConsumeWarningNoQuantity": "{name} ha esaurito la sua risorsa associata: {type}!",
"DND5E.ConsumeWarningZeroAttribute": "{name} ha esaurito L'insieme di risorse degli attributi associati!",
"DND5E.ConsumeResource": "Consuma Risorsa?",
"DND5E.ConsumeRecharge": "Consuma Ricarica?",
"DND5E.ConsumableAmmunition": "Munizione",
"DND5E.ConsumableFood": "Cibo",
"DND5E.ConsumablePoison": "Veleno",
"DND5E.ConsumablePotion": "Pozione",
"DND5E.ConsumableRod": "Asta",
"DND5E.ConsumableScroll": "Pergamena",
"DND5E.ConsumableTrinket": "Gioiello",
"DND5E.ConsumableWand": "Bacchetta",
"DND5E.ConsumableUseWarnStart": "Questo consumabile ha",
"DND5E.ConsumableUseWarnEnd": "dell'unità corrente",
"DND5E.ConsumableUnitWarn": "unità rimanenti",
"DND5E.ConsumableLastChargeWarn": "Questa è l'ultima carica di questa unità e consumarla ridurrà anche la quantità dell'oggetto di 1.",
"DND5E.ConsumableWithoutCharges": "Unità disponibili all'uso",
"DND5E.Consumed": "Consumato",
"DND5E.Cover": "Coperto",
"DND5E.CoverHalf": "Metà",
"DND5E.CoverThreeQuarters": "Tre Quarti",
"DND5E.CoverTotal": "Totale",
"DND5E.CostGP": "Costo (MO)",
"DND5E.CreatureAberration": "Aberrazione",
"DND5E.CreatureAberrationPl": "Aberrazioni",
"DND5E.CreatureBeast": "Bestia",
"DND5E.CreatureBeastPl": "Bestie",
"DND5E.CreatureCelestial": "Celestiale",
"DND5E.CreatureCelestialPl": "Celestiali",
"DND5E.CreatureConstruct": "Costrutto",
"DND5E.CreatureConstructPl": "Costrutti",
"DND5E.CreatureDragon": "Drago",
"DND5E.CreatureDragonPl": "Draghi",
"DND5E.CreatureElemental": "Elementale",
"DND5E.CreatureElementalPl": "Elementali",
"DND5E.CreatureFey": "Folletto",
"DND5E.CreatureFeyPl": "Folletti",
"DND5E.CreatureFiend": "Immondo",
"DND5E.CreatureFiendPl": "Immondi",
"DND5E.CreatureGiant": "Gigante",
"DND5E.CreatureGiantPl": "Giganti",
"DND5E.CreatureHumanoid": "Umanoide",
"DND5E.CreatureHumanoidPl": "Umanoidi",
"DND5E.CreatureMonstrosity": "Mostruosità",
"DND5E.CreatureMonstrosityPl": "Mostruosità",
"DND5E.CreatureOoze": "Melma",
"DND5E.CreatureOozePl": "Melme",
"DND5E.CreaturePlant": "Vegetale",
"DND5E.CreaturePlantPl": "Vegetali",
"DND5E.CreatureType": "Tipo Creatura",
"DND5E.CreatureTypeTitle": "Configura Tipo Creatura",
"DND5E.CreatureSwarm": "Sciame",
"DND5E.CreatureSwarmSize": "Dimens. Sciame",
"DND5E.CreatureSwarmPhrase": "Sciame di {size} {type} ",
"DND5E.CreatureTypeConfig": "Configura Tipo Creatura",
"DND5E.CreatureTypeSelectorCustom": "Tipo Personalizzato",
"DND5E.CreatureTypeSelectorSubtype": "Sottotipo",
"DND5E.CreatureUndead": "Non Morto",
"DND5E.CreatureUndeadPl": "Non Morti",
"DND5E.Crewed": "Con Equipaggio",
"DND5E.Critical": "Critico",
"DND5E.CriticalHit": "Tiro Critico",
"DND5E.PowerfulCritical": "Critico Migliorato",
"DND5E.Currency": "Moneta",
"DND5E.CurrencyCP": "Rame",
"DND5E.CurrencyConvert": "Converti tutta la moneta",
"DND5E.CurrencyConvertHint": "Converti tutta la moneta trasportata alla massima valuta possibile per ridurre la quantità di conio trasportato dal personaggio. Attenzione, questa azione non può essere annullata.",
"DND5E.CurrencyEP": "Electrum",
"DND5E.CurrencyGP": "Oro",
"DND5E.CurrencyPP": "Platino",
"DND5E.CurrencySP": "Argento",
"DND5E.DamImm": "Immunità al Danno",
"DND5E.DamRes": "Resistenza al Danno",
"DND5E.DamVuln": "Vulnerabilità al Danno",
"DND5E.Damage": "Danno",
"DND5E.DamageAcid": "Acido",
"DND5E.DamageBludgeoning": "Contundente",
"DND5E.DamageCold": "Freddo",
"DND5E.DamageFire": "Fuoco",
"DND5E.DamageForce": "Forza",
"DND5E.DamageLightning": "Fulmine",
"DND5E.DamageNecrotic": "Necrotico",
"DND5E.DamagePiercing": "Perforanti",
"DND5E.DamagePhysical": "Fisico non magico",
"DND5E.DamagePoison": "Veleno",
"DND5E.DamagePsychic": "Psichico",
"DND5E.DamageRadiant": "Radioso",
"DND5E.DamageRoll": "Tiro per il Danno",
"DND5E.DamageSlashing": "Taglienti",
"DND5E.DamageThunder": "Tuono",
"DND5E.Day": "Giorno",
"DND5E.DeathSave": "TS Contro Morte",
"DND5E.DeathSaveCriticalSuccess": "{name} è riuscito in un tiro salvezza critico e ha riguadagnato 1 Punto Ferita!",
"DND5E.DeathSaveSuccess": "{name} è sopravvissuto grazie a 3 successi su tiro contro motre",
"DND5E.DeathSaveFailure": "{name} è morto a causa di 3 fallimenti su tiro contro morte",
"DND5E.DeathSavingThrow": "Tiro Salvezza Contro Morte",
"DND5E.DeathSaveUnnecessary": "Non è necessario effettuare un tiro salvezza sulla morte perché hai un numero positivo di punti ferita o hai già conseguito 3 successi o fallimenti.",
"DND5E.Default": "Predefinito",
"DND5E.DefaultAbilityCheck": "Controllo Caratteristica Predefinito",
"DND5E.Description": "Descrizione",
"DND5E.Details": "Dettagli",
"DND5E.Dimensions": "Dimensioni",
"DND5E.Disadvantage": "Svantaggio",
"DND5E.DistAny": "Qualsiasi",
"DND5E.DistFt": "Metri",
"DND5E.DistMi": "Km",
"DND5E.DistSelf": "Personale",
"DND5E.DistTouch": "Contatto",
"DND5E.Duration": "Durata",
"DND5E.Effects": "Effetti",
"DND5E.EquipmentBonus": "Bonus Magico",
"DND5E.EquipmentClothing": "Abbigliamento",
"DND5E.EquipmentHeavy": "Armatura Pesante",
"DND5E.EquipmentLight": "Armatura Leggera",
"DND5E.EquipmentMedium": "Armatura Media",
"DND5E.EquipmentNatural": "Armatura Naturale",
"DND5E.EquipmentShield": "Scudo",
"DND5E.EquipmentShieldProficiency": "Scudi",
"DND5E.EquipmentTrinket": "Gioielli",
"DND5E.EquipmentVehicle": "Equipaggiamento Veicolo",
"DND5E.Equipped": "Equipaggiato",
"DND5E.Exhaustion": "Indebolimento",
"DND5E.Expertise": "Competenza",
"DND5E.FeatureActionRecharge": "Ricarica Azione",
"DND5E.Flaws": "Difetti",
"DND5E.EffectCreate": "Crea Effetto",
"DND5E.EffectToggle": "Attiva/Disattiva Effetto",
"DND5E.EffectEdit": "Modifica Effetto",
"DND5E.EffectDelete": "Elimina Effetto",
"DND5E.EffectTemporary": "Effetti Temporanei",
"DND5E.EffectPassive": "Effetti Passivi",
"DND5E.EffectInactive": "Effetti Inattivi",
"DND5E.EffectNew": "Nuovo Effetto",
"DND5E.ItemTypeClass": "Classe",
"DND5E.ItemTypeClassPl": "Livelli Classe",
"DND5E.ItemTypeConsumable": "Consumabile",
"DND5E.ItemTypeConsumablePl": "Consumabili",
"DND5E.ItemTypeContainer": "Contenitore",
"DND5E.ItemTypeBackpack": "Contenitore",
"DND5E.ItemTypeContainerPl": "Contenitori",
"DND5E.ItemTypeEquipment": "Equipaggiamento",
"DND5E.ItemTypeEquipmentPl": "Equipaggiamento",
"DND5E.ItemTypeFeat": "Talento",
"DND5E.ItemTypeLoot": "Altro",
"DND5E.ItemTypeLootPl": "Altro",
"DND5E.ItemTypeTool": "Strumento",
"DND5E.ItemTypeToolPl": "Strumenti",
"DND5E.ItemTypeSpell": "Incantesimo",
"DND5E.ItemTypeSpellPl": "Incantesimi",
"DND5E.ItemTypeWeapon": "Arma",
"DND5E.ItemTypeWeaponPl": "Armi",
"DND5E.ItemNoUses": "{name} non ha utilizzi rimanenti.",
"DND5E.FeatureActive": "Abilità Attive",
"DND5E.FeatureAdd": "Crea Privilegio",
"DND5E.FeatureAttack": "Attacco Privilegio",
"DND5E.FeaturePassive": "Abilità Passive",
"DND5E.FeatureRechargeOn": "Ricarica On",
"DND5E.FeatureRechargeResult": "Risultato su 1d6",
"DND5E.FeatureUsage": "Uso Privilegio",
"DND5E.Features": "Privilegi",
"DND5E.Feats": "Talenti",
"DND5E.FeetAbbr": "mt.",
"DND5E.Filter": "Filtro",
"DND5E.FilterNoSpells": "Nessun incantesimo trovato per questo set di filtri.",
"DND5E.NoSpellLevels": "Questo personaggio non ha livelli da incantatore, ma puoi aggiungere incantesimi manualmente.",
"DND5E.FlagsInstructions": "Configura privilegi e tratti del personaggio che perfezionano comportamenti del sistema D&D5e.",
"DND5E.FlagsSave": "Aggiorna Tratti Speciali",
"DND5E.FlagsTitle": "Configura Tratti Speciali",
"DND5E.FlagsDiamondSoul": "Diamond Soul",
"DND5E.FlagsDiamondSoulHint": "Ottiene competenza in tutti i tiri salvezza.",
"DND5E.FlagsPowerfulBuild": "Powerful Build",
"DND5E.FlagsPowerfulBuildHint": "Fornisce una maggiore capacità di carico.",
"DND5E.FlagsElvenAccuracy": "Elven Accuracy",
"DND5E.FlagsElvenAccuracyHint": "Tira un altro d20 con vantaggio su Des, Int, Sag o Car.",
"DND5E.FlagsHalflingLucky": "Fortunato (Halfling)",
"DND5E.FlagsHalflingLuckyHint": "Ritira gli 1 alle prove con d20.",
"DND5E.FlagsInitiativeAdv": "Vantaggio sull'Iniziativa",
"DND5E.FlagsInitiativeAdvHint": "Fornito da talenti o oggetti magici.",
"DND5E.FlagsAlert": "Talento Allerta",
"DND5E.FlagsAlertHint": "Bonus di +5 all'Iniziativa.",
"DND5E.FlagsJOAT": "Factotum",
"DND5E.FlagsJOATHint": "Aggiunge metà del bonus di competenza a ogni prova di Caratteristica in cui non è già Competente.",
"DND5E.FlagsObservant": "Talento Osservatore",
"DND5E.FlagsObservantHint": "Ottiene +5 alle prove passive di Percezione e alle prove passive di Indagare.",
"DND5E.FlagsReliableTalent": "Dote Affidabile",
"DND5E.FlagsReliableTalentHint": "Privilegio del Ladro Dote Affidabile.",
"DND5E.FlagsRemarkableAthlete": "Atleta Straordinario.",
"DND5E.FlagsRemarkableAthleteHint": "Aggiunge metà del bonus di Competenza (arrotondato per eccesso) alle prove di Caratteristica di Forza, Destrezza e Costituzione e all'Iniziativa.",
"DND5E.FlagsWeaponCritThreshold": "Soglia per il Colpo Critico con Armi",
"DND5E.FlagsWeaponCritThresholdHint": "Consente di ampliare l'intervallo per il Colpo Critico per attacchi con armi.",
"DND5E.FlagsSpellCritThreshold": "Soglia per il Colpo Critico con Incantesimi",
"DND5E.FlagsSpellCritThresholdHint": "Consente di ampliare l'intervallo per il Colpo Critico per attacchi con Incantesimi.",
"DND5E.FlagsMeleeCriticalDice": "Dadi per Danno Critico in Mischia",
"DND5E.FlagsMeleeCriticalDiceHint": "Numero di dadi di danno aggiuntivi per i colpi critici nelle armi da mischia.",
"DND5E.Flat": "Valore",
"DND5E.Formula": "Formula",
"DND5E.GrantedAbilities": "Abilità Concesse",
"DND5E.HalfProficient": "Metà Competenza",
"DND5E.Healing": "Guarigione",
"DND5E.HealingTemp": "Punti Ferita (Temporanei)",
"DND5E.HitPoints": "Punti Ferita",
"DND5E.HP": "PF",
"DND5E.HealthConditions": "Condizioni di Salute",
"DND5E.HPFormula": "Formula per i Punti Ferita",
"DND5E.HitDice": "Dado Vita",
"DND5E.HitDiceConfig": "Regola Dadi Vita",
"DND5E.HitDiceConfigHint": "Regola i livelli dei dadi vita rimanenti per ogni classe.",
"DND5E.HitDiceMax": "Dadi Vita Massimi",
"DND5E.HitDiceRemaining": "Dadi Vita Rimanenti",
"DND5E.HitDiceRoll": "Tiro Per Colpire",
"DND5E.HitDiceUsed": "Dado Vita Usato",
"DND5E.HitDiceWarn": "{name} non ha {formula} Dadi Vita rimanenti!",
"DND5E.Ideals": "Ideali",
"DND5E.Identified": "Identificato",
"DND5E.Initiative": "Iniziativa",
"DND5E.Inspiration": "Ispirazione",
"DND5E.Inventory": "Inventario",
"DND5E.ItemActionType": "Tipo Azione",
"DND5E.ItemActivationCondition": "Condizioni di Attivazione",
"DND5E.ItemActivationCost": "Costo di Attivazione",
"DND5E.ItemAttackBonus": "Bonus al Tiro di Attacco",
"DND5E.ItemConsumableActivation": "Attivazione Consumabile",
"DND5E.ItemConsumableUsage": "Utilizzo Consumabile",
"DND5E.ItemConsumableDetails": "Dettaglio Consumabile",
"DND5E.ItemConsumableStatus": "Stato Consumabile",
"DND5E.ItemConsumableType": "Tipo Consumabile",
"DND5E.ItemContainerCapacity": "Capacità",
"DND5E.ItemContainerCapacityItems": "Oggetti",
"DND5E.ItemContainerCapacityType": "Tipo Capacità",
"DND5E.ItemContainerCapacityWeight": "Peso",
"DND5E.ItemContainerDetails": "Dettaglio Contenitore",
"DND5E.ItemContainerProperties": "Proprietà Contenitori",
"DND5E.ItemContainerWeightless": "Contenuti Privi di Peso",
"DND5E.ItemCreate": "Create Oggetto",
"DND5E.ItemDelete": "Elimina Oggetto",
"DND5E.ItemDestroyEmpty": "Distruggi se Vuoto",
"DND5E.ItemEdit": "Modifica Oggetto",
"DND5E.ItemEquipmentAction": "Azione Attrezzatura",
"DND5E.ItemEquipmentDetails": "Dettaglio Attrezzatura",
"DND5E.ItemEquipmentDexMod": "Modificatore Destrezza Massimo",
"DND5E.ItemEquipmentStatus": "Stato Attrezzatura",
"DND5E.ItemEquipmentStealthDisav": "Imponi Svantaggio Furtività",
"DND5E.ItemEquipmentType": "Tipo Attrezzatura",
"DND5E.ItemEquipmentUsage": "Utilizzo Attrezzatura",
"DND5E.ItemName": "Nome Oggetto",
"DND5E.ItemNew": "Nuovo/a {type}",
"DND5E.ItemRechargeCheck": "{name}: check di ricarica",
"DND5E.ItemRechargeFailure": "fallimento!",
"DND5E.ItemRechargeSuccess": "successo!",
"DND5E.ItemRequiredStr": "Forza Richiesta",
"DND5E.ItemToolProficiency": "Competenza Strumenti",
"DND5E.ItemWeaponAttack": "Attacco Arma",
"DND5E.ItemWeaponDetails": "Dettaglio Arma",
"DND5E.ItemWeaponProperties": "Proprietà Arma",
"DND5E.ItemWeaponStatus": "Stato Arma",
"DND5E.ItemWeaponType": "Tipo Arma",
"DND5E.ItemWeaponUsage": "Utilizzo Arma",
"DND5E.JackOfAllTrades": "Tuttofare",
"DND5E.LairAct": "Utilizza Azioni di Tana",
"DND5E.LairActionLabel": "Azioni di Tana",
"DND5E.Languages": "Linguaggi",
"DND5E.LanguagesAarakocra": "Aarakocra",
"DND5E.LanguagesAbyssal": "Abissale",
"DND5E.LanguagesAquan": "Aquan",
"DND5E.LanguagesAuran": "Auran",
"DND5E.LanguagesCelestial": "Celestiale",
"DND5E.LanguagesCommon": "Comune",
"DND5E.LanguagesDeepSpeech": "Gergo delle Profondità",
"DND5E.LanguagesDraconic": "Draconico",
"DND5E.LanguagesDruidic": "Druidico",
"DND5E.LanguagesDwarvish": "Nanico",
"DND5E.LanguagesElvish": "Elfico",
"DND5E.LanguagesGiant": "Gigante",
"DND5E.LanguagesGith": "Gith",
"DND5E.LanguagesGnoll": "Gnoll",
"DND5E.LanguagesGnomish": "Gnomesco",
"DND5E.LanguagesGoblin": "Goblin",
"DND5E.LanguagesHalfling": "Halfling",
"DND5E.LanguagesIgnan": "Ignan",
"DND5E.LanguagesInfernal": "Infernale",
"DND5E.LanguagesOrc": "Orchesco",
"DND5E.LanguagesPrimordial": "Primordiale",
"DND5E.LanguagesSylvan": "Silvano",
"DND5E.LanguagesTerran": "Terran",
"DND5E.LanguagesThievesCant": "Gergo Ladresco",
"DND5E.LanguagesUndercommon": "Sottocomune",
"DND5E.LegAct": "Azioni Legnd",
"DND5E.LegendaryActionLabel": "Azioni Legnd",
"DND5E.LegRes": "Resistenze Legnd",
"DND5E.Level": "Livello",
"DND5E.LevelScaling": "Ai Livelli Superiori",
"DND5E.LimitedUses": "Usi Limitati",
"DND5E.LongRest": "Riposo Lungo",
"DND5E.LongRestNormal": "Riposo Lungo (8 ore)",
"DND5E.LongRestGritty": "Riposo Lungo (7 giorni)",
"DND5E.LongRestEpic": "Riposo Lungo (1 ora)",
"DND5E.LongRestOvernight": "Riposo Lungo (Nuovo Giorno)",
"DND5E.LongRestHint": "Prendi un Riposo Lungo? Con un riposo lungo recupererai punti ferita, metà dei tuoi dadi vita massimi, risorse di classe, cariche per oggetti a uso limitato e slot incantesimi.",
"DND5E.LongRestResult": "{name} usa un Riposo Lungo e recupera {health} Punti Ferita e {dice} Dadi Vita.",
"DND5E.LongRestResultHitDice": "{name} effettua un riposo lungo e recupera {dice} Dadi Vita.",
"DND5E.LongRestResultHitPoints": "{name} effettua un riposo lungo e recupera {health} punti ferita.",
"DND5E.LongRestResultShort": "{name} effettua un riposo lungo.",
"DND5E.Max": "Massimo",
"DND5E.Modifier": "Modificatore",
"DND5E.Name": "Nome Personaggio",
"DND5E.NoCharges": "Nessuna Carica",
"DND5E.None": "Nessuna",
"DND5E.Normal": "Normale",
"DND5E.NotProficient": "Non Competente",
"DND5E.OtherFormula": "Altra Formula",
"DND5E.PactMagic": "Patto Magico",
"DND5E.Passive": "Passiva",
"DND5E.PersonalityTraits": "Tratti della personalità",
"DND5E.PlaceTemplate": "Posiziona Area di Effetto",
"DND5E.Polymorph": "Mutaforma",
"DND5E.PolymorphAcceptSettings": "Impostazioni Personalizzate",
"DND5E.PolymorphKeepBio": "Mantieni Biografia",
"DND5E.PolymorphKeepClass": "Mantieni Bonus Competenza (lascia gli oggetti di classe nella scheda)",
"DND5E.PolymorphKeepFeats": "Mantieni Privilegi",
"DND5E.PolymorphKeepItems": "Mantieni Equipaggiamento",
"DND5E.PolymorphKeepMental": "Mantieni i Punteggi delle Abilità Mentali (Int, Sag, Car)",
"DND5E.PolymorphKeepPhysical": "Mantieni i Punteggi delle Abilità Fisiche (For, Des, Cos)",
"DND5E.PolymorphKeepSaves": "Mantieni Competenza Tiri Salvezza",
"DND5E.PolymorphKeepSkills": "Mantieni Competenza Abilità",
"DND5E.PolymorphKeepSpells": "Mantieni Incantesimi",
"DND5E.PolymorphKeepVision": "Mantieni Visione (Personaggio e token)",
"DND5E.PolymorphMergeSaves": "Unisci Competenza Tiri Salvezza (Tieni il più alto)",
"DND5E.PolymorphMergeSkills": "Unisci Competenza Abilità (Tieni il più alto)",
"DND5E.PolymorphPromptTitle": "Trasforma",
"DND5E.PolymorphRestoreTransformation": "Ripristina Trasformazione",
"DND5E.PolymorphRevertWarn": "Non sei autorizzato a ripristinare lo stato polimorfico di questo personaggio",
"DND5E.PolymorphTmpClass": "Classe Temporanea",
"DND5E.PolymorphTokens": "Trasforma tutti i token collegati?",
"DND5E.PolymorphWarn": "Non sei autorizzato a cambiare lo stato polimorfico di questo personaggio!",
"DND5E.PolymorphWildShape": "Forma Selvatica",
"DND5E.Prepared": "Preparato",
"DND5E.Price": "Prezzo",
"DND5E.Proficiency": "Competenza",
"DND5E.Proficient": "Competente",
"DND5E.Quantity": "Quantità",
"DND5E.Race": "Razza",
"DND5E.RacialTraits": "Tratti Razziali",
"DND5E.Range": "Distanza",
"DND5E.Rarity": "Rarità",
"DND5E.Reaction": "Reazione",
"DND5E.ReactionPl": "Reazioni",
"DND5E.Recharge": "Ricarica",
"DND5E.RequiredMaterials": "Materiali Richiesti",
"DND5E.Requirements": "Requisiti",
"DND5E.ResourcePrimary": "Risorsa 1",
"DND5E.ResourceSecondary": "Risorsa 2",
"DND5E.ResourceTertiary": "Risorsa 3",
"DND5E.Rest": "Riposo",
"DND5E.RestL": "R. Ln.",
"DND5E.RestS": "R. Br.",
"DND5E.Ritual": "Rituale",
"DND5E.Roll": "Tiro",
"DND5E.RollExample": "es. 1d4",
"DND5E.RollMode": "Modalità",
"DND5E.RollSituationalBonus": "Bonus Aggiuntivi?",
"DND5E.Movement": "Movimento",
"DND5E.MovementConfig": "Configura il Movimento",
"DND5E.MovementConfigHint": "Configura la velocità di movimento e gli attributi di movimento speciali di questa creatura.",
"DND5E.MovementWalk": "Camminare",
"DND5E.MovementBurrow": "Scavare",
"DND5E.MovementClimb": "Scalare",
"DND5E.MovementHover": "Fluttuare",
"DND5E.MovementFly": "Volare",
"DND5E.MovementSwim": "Nuotare",
"DND5E.MovementUnits": "Unità",
"DND5E.NewDay": "è un Nuovo Giorno?",
"DND5E.NewDayHint": "Recuperare abilità ad uso limitato che si ricaricano \"al giorno\"?",
"DND5E.Senses": "Sensi",
"DND5E.SensesConfig": "Configura Sensi",
"DND5E.SensesConfigHint": "Configura qualsiasi abilità di percezione sensoriale speciale che questo attore possiede.",
"DND5E.SenseDarkvision": "Scurovisione",
"DND5E.SenseBlindsight": "Vista Cieca",
"DND5E.SenseTremorsense": "Percezione Tellurica",
"DND5E.SenseTruesight": "Vista Pura",
"DND5E.SenseSpecial": "Sensi Speciali",
"DND5E.SheetClassCharacter": "Scheda Personaggio Predefinita",
"DND5E.SheetClassNPC": "Scheda PNG Predefinita",
"DND5E.SheetClassVehicle": "Scheda Veicolo predefinita",
"DND5E.SheetClassItem": "Scheda Oggetto Predefinita",
"DND5E.SavingThrow": "Tiro Salvezza",
"DND5E.SaveDC": "CD {dc} {ability}",
"DND5E.SavePromptTitle": "Tiro Salvezza su {ability}",
"DND5E.ScalingFormula": "Formula Per Scalare",
"DND5E.SchoolAbj": "Abiurazione",
"DND5E.SchoolCon": "Evocazione",
"DND5E.SchoolDiv": "Divinazione",
"DND5E.SchoolEnc": "Ammaliamento",
"DND5E.SchoolEvo": "Invocazione",
"DND5E.SchoolIll": "Illusione",
"DND5E.SchoolNec": "Necromanzia",
"DND5E.SchoolTrs": "Trasmutazione",
"DND5E.ShortRest": "Riposo Breve",
"DND5E.ShortRestNormal": "Riposo Breve (1 ora)",
"DND5E.ShortRestGritty": "Riposo Breve (8 ore)",
"DND5E.ShortRestEpic": "Riposo Breve (5 minuti)",
"DND5E.ShortRestOvernight": "Riposo Breve (Nuovo Giorno)",
"DND5E.ShortRestHint": "Vuoi fare un Riposo Breve? Con un Riposo Breve puoi spendere i Dadi Vita rimanenti e recuperare risorse primarie o secondarie.",
"DND5E.ShortRestNoHD": "Nessun Dado Vita rimanente",
"DND5E.ShortRestResult": "{name} utilizza una Pausa Breve spendendo {dice} Dadi Vita per recuperare {health} Punti Ferita.",
"DND5E.ShortRestResultShort": "{name} effettua un riposo breve.",
"DND5E.ShortRestSelect": "Seleziona il Dado da Tirare",
"DND5E.Size": "Taglia",
"DND5E.SizeGargantuan": "Mastodontica",
"DND5E.SizeHuge": "Enorme",
"DND5E.SizeLarge": "Grande",
"DND5E.SizeMedium": "Media",
"DND5E.SizeSmall": "Piccola",
"DND5E.SizeTiny": "Minuscola",
"DND5E.SkillAcr": "Acrobazia",
"DND5E.SkillAni": "Addestrare Animali",
"DND5E.SkillArc": "Arcano",
"DND5E.SkillAth": "Atletica",
"DND5E.SkillDec": "Inganno",
"DND5E.SkillHis": "Storia",
"DND5E.SkillIns": "Intuizione",
"DND5E.SkillInv": "Indagare",
"DND5E.SkillItm": "Intimidire",
"DND5E.SkillMed": "Medicina",
"DND5E.SkillNat": "Natura",
"DND5E.SkillPer": "Persuasione",
"DND5E.SkillPrc": "Percezione",
"DND5E.SkillPrf": "Intrattenere",
"DND5E.SkillRel": "Religione",
"DND5E.SkillSlt": "Rapidità di Mano",
"DND5E.SkillSte": "Furtività",
"DND5E.SkillSur": "Sopravvivenza",
"DND5E.SkillPromptTitle": "Prova di Abilità su {skill}",
"DND5E.Skip": "Salta",
"DND5E.Source": "Sorgente",
"DND5E.Special": "Speciale",
"DND5E.SpecialTraits": "Tratti Speciali",
"DND5E.Speed": "Velocità",
"DND5E.SpeedSpecial": "Movim. Speciale",
"DND5E.SpellAbility": "Abilità Incantatore",
"DND5E.SpellAdd": "Aggiungi",
"DND5E.SpellCantrip": "Trucchetto",
"DND5E.SpellCastConsume": "Consuma Slot?",
"DND5E.SpellCastNoSlots": "Non hai slot incantesimo disponibili di {level} con cui lanciare {name}",
"DND5E.SpellCastUpcast": "Lancia al livello",
"DND5E.SpellcasterLevel": "Livello Incantatore",
"DND5E.SpellCastingHeader": "Lancio Incantesimi",
"DND5E.Spellcasting": "Lancio Incantesimi",
"DND5E.SpellComponents": "Componenti Incantesimo",
"DND5E.SpellCreate": "Crea Incantesimo",
"DND5E.SpellDC": "CD Incantesimo",
"DND5E.SpellDetails": "Dettagli Incantesimo",
"DND5E.SpellEffects": "Effetti Incantesimo",
"DND5E.SpellLevel": "Livello",
"DND5E.SpellLevel0": "Trucchetti",
"DND5E.SpellLevel1": "1° Livello",
"DND5E.SpellLevel2": "2° Livello",
"DND5E.SpellLevel3": "3° Livello",
"DND5E.SpellLevel4": "4° Livello",
"DND5E.SpellLevel5": "5° Livello",
"DND5E.SpellLevel6": "6° Livello",
"DND5E.SpellLevel7": "7° Livello",
"DND5E.SpellLevel8": "8° Livello",
"DND5E.SpellLevel9": "9° Livello",
"DND5E.SpellLevelSlot": "{level} ({n} Slots)",
"DND5E.SpellLevelPact": "Slot Patto [Livello {level}] ({n} Slots)",
"DND5E.SpellMaterials": "Materiali",
"DND5E.SpellName": "Nome Incantesimo",
"DND5E.SpellNone": "Nessuna",
"DND5E.SpellPrepAtWill": "A Volontà",
"DND5E.SpellPrepInnate": "Incantesimo Innato",
"DND5E.SpellPrepPrepared": "Preparato",
"DND5E.SpellPrepAlways": "Sempre disponibile",
"DND5E.SpellPreparationMode": "Modalità Preparazione",
"DND5E.SpellPrepared": "Preparato",
"DND5E.SpellProgArt": "Artefice",
"DND5E.SpellProgFull": "Incantatore Completo",
"DND5E.SpellProgHalf": "1/2 Incantatore",
"DND5E.SpellProgOverride": "Sovrascrivi slots",
"DND5E.SpellProgPact": "Patto Magico",
"DND5E.SpellProgThird": "1/3 Incantatore",
"DND5E.SpellProgression": "Progressione Incantesimi",
"DND5E.SpellSchool": "Scuola",
"DND5E.SpellScroll": "Pergamena",
"DND5E.SpellTarget": "Obiettivo",
"DND5E.SpellUnprepared": "Non Preparato",
"DND5E.SpellUsage": "Utilizzo",
"DND5E.Spellbook": "Incantesimi",
"DND5E.StealthDisadvantage": "Svantaggio Furtività",
"DND5E.SubclassName": "Nome Sottoclasse",
"DND5E.Supply": "Fornitura",
"DND5E.Target": "Obiettivo",
"DND5E.TargetAlly": "Alleato",
"DND5E.TargetCone": "Cono",
"DND5E.TargetCreature": "Creatura",
"DND5E.TargetCube": "Cubo",
"DND5E.TargetCylinder": "Cilindro",
"DND5E.TargetEnemy": "Nemico",
"DND5E.TargetLine": "Linea",
"DND5E.TargetObject": "Oggetto",
"DND5E.TargetRadius": "Raggio",
"DND5E.TargetSelf": "Personale",
"DND5E.TargetSpace": "Spazio",
"DND5E.TargetSphere": "Sfera",
"DND5E.TargetSquare": "Quadrato",
"DND5E.TargetWall": "Muro",
"DND5E.TargetWidth": "Larghezza Linea",
"DND5E.Temp": "Temp",
"DND5E.Threshold": "Soglia",
"DND5E.TimeDay": "Giorni",
"DND5E.TimeHour": "Ore",
"DND5E.TimeInst": "Istantaneo",
"DND5E.TimeMinute": "Minuti",
"DND5E.TimeMonth": "Mesi",
"DND5E.TimePerm": "Permanente",
"DND5E.TimeRound": "Round",
"DND5E.TimeTurn": "Turni",
"DND5E.TimeYear": "Anni",
"DND5E.ToolArtisans": "Strumenti da Artigiano",
"DND5E.ToolCheck": "Prova su Strumento",
"DND5E.ToolDisguiseKit": "Trucchi per Camuffamento",
"DND5E.ToolForgeryKit": "Strumenti da Fabbro",
"DND5E.ToolGamingSet": "Set da Gioco",
"DND5E.ToolHerbalismKit": "Borsa da Erborista",
"DND5E.ToolMusicalInstrument": "Strumento Musicale",
"DND5E.ToolNavigators": "Strumenti da Navigatore",
"DND5E.ToolPoisonersKit": "Strumenti da Avvelenatore",
"DND5E.ToolThieves": "Arnesi da Scasso",
"DND5E.ToolVehicle": "Veicoli (terrestri o acquatici)",
"DND5E.TraitArmorProf": "Competenza Armature",
"DND5E.TraitSave": "Aggiorna",
"DND5E.TraitSelectorSpecial": "Speciale (separati da virgola)",
"DND5E.TraitToolProf": "Competenza Strumenti",
"DND5E.TraitWeaponProf": "Competenza Armi",
"DND5E.Type": "Tipo",
"DND5E.Uncrewed": "Senza Equipaggio",
"DND5E.Unequipped": "Non Equipaggiato",
"DND5E.Unlimited": "Illimitato",
"DND5E.Usage": "Utilizzo",
"DND5E.Use": "Uso",
"DND5E.Uses": "Usi",
"DND5E.Vehicle": "Veicolo",
"DND5E.VehicleActionStations": "Azioni Stazioni",
"DND5E.VehicleActionThresholds": "Azioni Soglia",
"DND5E.VehicleCargo": "Carico",
"DND5E.VehicleCargoCapacity": "Capacità Carico",
"DND5E.VehicleCargoCrew": "Carico & Equip.",
"DND5E.VehicleCreatureCapacity": "Capacità Creatura",
"DND5E.VehicleCrew": "Equipaggio",
"DND5E.VehicleCrewed": "Con Equipaggio",
"DND5E.VehicleCrewAction": "Azione Equipaggio",
"DND5E.VehicleEquipment": "Equipaggiamento Veicolo",
"DND5E.VehicleMishap": "Incidente",
"DND5E.VehiclePassengers": "Passeggeri",
"DND5E.VehicleUncrewed": "Senza Equipaggio",
"DND5E.Versatile": "Versatile",
"DND5E.VersatileDamage": "Danno Versatile",
"DND5E.VsDC": "contro CD.",
"DND5E.WeaponImprov": "Improvvisata",
"DND5E.WeaponMartialM": "Da Mischia Da Guerra",
"DND5E.WeaponMartialProficiency": "Armi da Guerra",
"DND5E.WeaponMartialR": "A Distanza Da Guerra",
"DND5E.WeaponNatural": "Naturale",
"DND5E.WeaponPropertiesAda": "Adamantina",
"DND5E.WeaponPropertiesAmm": "Munizioni",
"DND5E.WeaponPropertiesFin": "Accurata",
"DND5E.WeaponPropertiesFir": "Armi da fuoco",
"DND5E.WeaponPropertiesFoc": "Concentrazione",
"DND5E.WeaponPropertiesHvy": "Pesante",
"DND5E.WeaponPropertiesLgt": "Leggera",
"DND5E.WeaponPropertiesLod": "Ricarica",
"DND5E.WeaponPropertiesMgc": "Magico",
"DND5E.WeaponPropertiesRch": "Gittata",
"DND5E.WeaponPropertiesRel": "Carica Multipla",
"DND5E.WeaponPropertiesRet": "Ritornante",
"DND5E.WeaponPropertiesSil": "D'argento",
"DND5E.WeaponPropertiesSpc": "Speciale",
"DND5E.WeaponPropertiesThr": "Da Lancio",
"DND5E.WeaponPropertiesTwo": "A Due Mani",
"DND5E.WeaponPropertiesVer": "Versatile",
"DND5E.WeaponSiege": "Arma da Assedio",
"DND5E.WeaponSimpleM": "Da Mischia Semplice",
"DND5E.WeaponSimpleProficiency": "Armi Semplici",
"DND5E.WeaponSimpleR": "A Distanza Semplice",
"DND5E.Weight": "Peso",
"DND5E.available": "Disponibile",
"DND5E.description": "Sistema di gioco completo per Dungeons & Dragons 5th Edition all'interno di Foundry VTT.",
"DND5E.of": "di",
"DND5E.per": "per",
"DND5E.spell": "incantesimo",

"SETTINGS.5eAllowPolymorphingL": "Consenti ai giocatori di trasformare i propri personaggi.",
"SETTINGS.5eAllowPolymorphingN": "Consenti Trasformazione",
"SETTINGS.5eAutoCollapseCardL": "Comprimi automaticamente la scheda di descrizione dell'oggetto nel registro chat",
"SETTINGS.5eAutoCollapseCardN": "Comprimi Schede degli Oggetti nella Chat",
"SETTINGS.5eAutoSpellTemplateL": "Quando viene lanciato un incantesimo, l'impostazione predefinita crea automaticamente l'eventuale modello misurato corrispondente (richiede il ruolo TRUSTED o superiore)",
"SETTINGS.5eAutoSpellTemplateN": "Posiziona sempre il modello dell'incantesimo",
"SETTINGS.5eCurWtL": "La valuta trasportata influenza l'ingombro del personaggio secondo le regole del PHB pag.143.",
"SETTINGS.5eCurWtN": "Applica il peso della valuta",
"SETTINGS.5eDiagEuclidean": "Euclidea (2,15 m in Diagonale)",
"SETTINGS.5eDiagL": "Configura la regola da usare per il movimento in diagonale in questo sistema.",
"SETTINGS.5eDiagN": "Regola per il Movimento Diagonale",
"SETTINGS.5eDiagPHB": "Manuale del Giocatore: Equidistante (5/5/5)",
"SETTINGS.5eDiagDMG": "Manuale del DM: Alternato (5/10/5)",
"SETTINGS.5eInitTBL": "Aggiunge il punteggio di Destrezza per risolvere pareggi di Iniziativa.",
"SETTINGS.5eInitTBN": "Spareggio Destrezza per l'Iniziativa",
"SETTINGS.5eNoExpL": "Rimuove le barre dell'Esperienza dalle schede dei personaggi",
"SETTINGS.5eNoExpN": "Disabilita il conteggio dell'Esperienza",
"SETTINGS.5eReset": "Ripristina",
"SETTINGS.5eRestL": "Configura quale variante di Riposo usare nelle partite in questo sistema.",
"SETTINGS.5eRestN": "Variante di Riposo",
"SETTINGS.5eRestPHB": "Manuale del Giocatore (RL: 8 ore, RB: 1 ora)",
"SETTINGS.5eRestGritty": "Realismo Crudo (RL: 7 giorni, RB: 8 ore)",
"SETTINGS.5eRestEpic": "Eroismo Epico (RL: 1 ora, RB: 1 min)",
"SETTINGS.5eUndoChanges": "Elimina Modifiche"
}
